Juan TORRES MUNGUÍA | HUMANITARIAN DATA SCIENTIST - Using a tidy approach in R to analyze the 2024 Mexico’s ENVIPE
…
# A tibble: 32 × 0

envipe_design |>
  group_by(NOM_ENT) |>
  summarize(
    Proportion = survey_mean(victim),
    N = survey_total(victim)
  )

# A tibble: 32 × 5
   NOM_ENT              Proportion Proportion_se       N   N_se
   <chr>                     <dbl>         <dbl>   <dbl>  <dbl>
 1 AGUASCALIENTES            0.328       0.0136   342231 16291.
 2 BAJA CALIFORNIA           0.238       0.0117   658657 32075.
 3 BAJA CALIFORNIA SUR       0.216       0.0100   139622  8402.
 4 CAMPECHE                  0.226       0.0102   152787  7574.
 5 CHIAPAS                   0.141       0.00743  507741 26588.
 6 CHIHUAHUA                 0.226       0.00848  632297 25743.
 7 CIUDAD DE MEXICO          0.325       0.00754 2473701 62817.
 8 COAHUILA DE ZARAGOZA      0.194       0.00904  463234 21934.
 9 COLIMA                    0.212       0.0101   115624  6001.
10 DURANGO                   0.164       0.00788  216134 11716.
# ℹ 22 more rows

envipe_design |>
  group_by(interact(NOM_ENT, SEXO)) |>
  summarize(
    Proportion = survey_mean(victim),
    N = survey_total(victim)
  )

# A tibble: 64 × 6
   NOM_ENT             SEXO  Proportion Proportion_se      N   N_se
   <chr>               <chr>      <dbl>         <dbl>  <dbl>  <dbl>
 1 AGUASCALIENTES      1          0.337       0.0217  159381 12234.
 2 AGUASCALIENTES      2          0.320       0.0183  182850 12013.
 3 BAJA CALIFORNIA     1          0.230       0.0160  303760 21785.
 4 BAJA CALIFORNIA     2          0.245       0.0154  354897 24430.
 5 BAJA CALIFORNIA SUR 1          0.193       0.0124   61094  4576.
 6 BAJA CALIFORNIA SUR 2          0.238       0.0147   78528  6060.
 7 CAMPECHE            1          0.218       0.0146   69975  5338.
 8 CAMPECHE            2          0.232       0.0138   82812  5139.
 9 CHIAPAS             1          0.166       0.00986 271846 17451.
10 CHIAPAS             2          0.121       0.00979 235895 18467.
# ℹ 54 more rows
…
